{
  "project_info": {
    "project_number": "293182370373",
    "project_id": "boilerplate-90038",
    "storage_bucket": "boilerplate-90038.appspot.com"
  },
  "client": [
    {
      "client_info": {
        "mobilesdk_app_id": "1:293182370373:android:de277486962facc150e92c",
        "android_client_info": {
          "package_name": "com.systango.boilerplatecode"
        }
      },
      "oauth_client": [
        {
          "client_id": "293182370373-bhi8bsk7mackia9b01u16tgke0duqdlg.apps.googleusercontent.com",
          "client_type": 3
        }
      ],
      "api_key": [
        {
          "current_key": "AIzaSyCYSDbx0jJ9KO5T6lBHcS6TCbHcCvkJlQo"
        }
      ],
      "services": {
        "appinvite_service": {
          "other_platform_oauth_client": [
            {
              "client_id": "293182370373-bhi8bsk7mackia9b01u16tgke0duqdlg.apps.googleusercontent.com",
              "client_type": 3
            }
          ]
        }
      }
    }
  ],
  "configuration_version": "1"
}